<svg width="32" height="29" viewBox="0 0 32 29" fill="none" xmlns="http://www.w3.org/2000/svg">
<path d="M19.5 20.866C19.2239 20.3877 19.3877 19.7761 19.866 19.5C20.3443 19.2239 20.9559 19.3877 21.232 19.866L25.5211 27.2949C25.7973 27.7732 25.6334 28.3848 25.1551 28.6609C24.6768 28.9371 24.0652 28.7732 23.7891 28.2949L19.5 20.866Z" fill="#CC6F6F"/>
<path fill-rule="evenodd" clip-rule="evenodd" d="M16.6154 20.9403C16.9046 20.9797 17.1999 21 17.5 21C21.0899 21 24 18.0899 24 14.5C24 10.9101 21.0899 8 17.5 8C17.1999 8 16.9046 8.02033 16.6154 8.05969V7.43756C16.6154 7.21644 16.605 7.00075 16.5848 6.79042C16.8562 4.9462 18.3159 3.57647 20.8619 2.73658C23.4226 1.8918 26.5968 1.80194 29.1538 2.32249V21.0629C26.8942 20.3072 24.7279 20.2004 22.7459 20.488L23.838 22.3797C25.6403 22.2411 27.5843 22.4973 29.5887 23.3712C30.2997 23.6812 31.1538 23.1934 31.1538 22.4177V1.50506C31.1538 1.07293 30.8784 0.688323 30.461 0.576245C25.6077 -0.727128 18.2702 0.0843892 15.5769 3.99959C12.8836 0.0843892 5.54612 -0.727128 0.69277 0.576245C0.275428 0.688323 0 1.07293 0 1.50506V22.4177C0 23.1934 0.854061 23.6812 1.56509 23.3712C6.85843 21.0633 11.7299 23.0634 14.6846 25.2669C14.948 25.4633 15.271 25.5251 15.5769 25.4812C15.8828 25.5251 16.2058 25.4633 16.4692 25.2669C17.4015 24.5716 18.5245 23.8966 19.7915 23.3708L19.1845 22.3195C19.0462 22.0799 18.9631 21.8236 18.9312 21.5653C18.0945 21.9187 17.3188 22.3261 16.6154 22.7564V20.9403ZM2 2.32249V21.0629C6.94373 19.4096 11.4412 20.8621 14.5384 22.7564V20.2877C12.4376 19.2105 11 17.0231 11 14.5C11 11.9769 12.4376 9.7895 14.5384 8.71235V7.43756C14.5384 7.21644 14.5488 7.00074 14.569 6.79041C14.2976 4.94619 12.8379 3.57647 10.292 2.73658C7.73122 1.8918 4.55698 1.80194 2 2.32249ZM14.5384 11.1118C13.5955 11.9367 13 13.1488 13 14.5C13 15.8512 13.5955 17.0633 14.5384 17.8882C15.1185 18.3956 15.8301 18.7565 16.6154 18.9131C16.9014 18.9701 17.1972 19 17.5 19C19.9853 19 22 16.9853 22 14.5C22 12.0147 19.9853 10 17.5 10C17.1972 10 16.9014 10.0299 16.6154 10.0869C15.8301 10.2435 15.1185 10.6044 14.5384 11.1118Z" fill="#CC6F6F"/>
</svg>
