{
    "status": "ok",
    "message": "Got CorrespondenceJson Document Type",
    "data": {
        "documentEntity": {
            "documentId": 17,
            "privacy": 0,
            "flgPrinted": 0,
            "producers": [
                {
                    "id": 9087,
                    "mapNameLf": "Medici-Strozzi, Laudomia",
                    "gender": "F",
                    "activeStart": null,
                    "activeEnd": "1558",
                    "bornYear": 1518,
                    "deathYear": null,
                    "unsure": "s",
                    "firstName": "Laudomia",
                    "lastName": "Medici-Strozzi",
                    "lastPrefix": null,
                    "sucNum": null
                },
                {
                    "id": 10324,
                    "mapNameLf": "Tolomei, Germanico",
                    "gender": "M",
                    "activeStart": "1602",
                    "activeEnd": null,
                    "bornYear": null,
                    "deathYear": null,
                    "unsure": "s",
                    "firstName": "Germanico",
                    "lastName": "Tolomei",
                    "lastPrefix": null,
                    "sucNum": null
                }
            ],
            "placeOfOrigin": [
                {
                    "id": 35841,
                    "placeNameId": 321191,
                    "placeName": "Plaue an der Havel / Potsdam / Brandenburg / Deutschland",
                    "prefFlag": "P",
                    "plType": "inhabited place",
                    "unsure": "s"
                }
            ],
            "uploadFiles": [
                {
                    "uploadFileId": 7,
                    "documentId": 17,
                    "filePath": "/Mia/mview/IIPImageServer.do?FIF=ASMA-ChIJ2S7lgg_UgUcRhXsOWQf9x8E/asd/21/thumbs/tiffGrosso.tif&WID=250",
                    "folios": [
                        {
                            "noNumb": null,
                            "folioId": 1,
                            "folioNumber": "234",
                            "rectoverso": "recto",
                            "uploadFileId": 7
                        }
                    ]
                },
                {
                    "uploadFileId": 8,
                    "documentId": 17,
                    "filePath": "/Mia/mview/IIPImageServer.do?FIF=ASMA-ChIJ2S7lgg_UgUcRhXsOWQf9x8E/asd/21/thumbs/SW_bound-manuscript.jpg&WID=250",
                    "folios": [
                        {
                            "noNumb": null,
                            "folioId": 3,
                            "folioNumber": "234",
                            "rectoverso": "verso",
                            "uploadFileId": 8
                        }
                    ]
                }
            ],
            "languages": null,
            "referredToPeople": null,
            "relatedDocs": null,
            "bibliographicReferences": null,
            "generalNoteSynopsis": null,
            "topics": null,
            "category": "correspondence",
            "typology": "Minuta",
            "date": {
                "docYear": 1458,
                "docMonth": 1,
                "docDay": 14,
                "docModernYear": 1457,
                "docDateUncertain": 1,
                "docUndated": 0,
                "docDateNotes": "wo"
            },
            "deTitle": "my fisrt de",
            "recipient": [
                {
                    "id": 199,
                    "mapNameLf": "Toledo-de' Medici, Leonor de (Eleonora)",
                    "gender": "F",
                    "activeStart": null,
                    "activeEnd": null,
                    "bornYear": 1522,
                    "deathYear": 1562,
                    "unsure": "s",
                    "firstName": "Leonor",
                    "lastName": "Toledo-de' Medici",
                    "lastPrefix": null,
                    "sucNum": null
                }
            ],
            "recipientPlace": [
                {
                    "id": 2368,
                    "placeNameId": 117517,
                    "placeName": "Evallen / Sverige / Europe / World",
                    "prefFlag": "P",
                    "plType": "lake",
                    "unsure": "s"
                }
            ]
        }
    }
}