{  
    "repositories":[  
       {  
          "repositoryId":"1",
          "repositoryName":"Archivio di Stato di Firenze",
          "repositoryAbbreviation":"ASFI",
          "repositoryDescription":"",
          "repositoryLocation":"ChIJrdbSgKZWKhMRAyrH7xd51ZM",
          "repositoryCity":"Florence",
          "repositoryCountry":"Italy"
       },
       {  
        "repositoryId":"2",
        "repositoryName":"Test",
        "repositoryAbbreviation":"ASFI",
        "repositoryDescription":"",
        "repositoryLocation":"ChIJrdbSgKZWKhMRAyrH7xd51ZM",
        "repositoryCity":"Florence",
        "repositoryCountry":"Italy"
      }
    ]
 }
 