{ "uploadImages":
  {
    "metadata" : {
      "defineBasicmetadataId":"0034354534534534563GGFGH323425",
      "repository": {
            "repositoryId":123,
            "repositoryLocation":"ChIJrdbSgKZWKhMRAyrH7xd51ZM",
            "repositoryCity":"Firenze",
            "repositoryCountry":"Italy",
            "repositoryName":"Archivio di stato di Firenze",
            "repositoryAbbreviation":"ASFI",
            "repositoryFileSystemPath":"/path-to-repo",
            "repositoryDescription":"The most beautyfull archive ever"
        },
        "collection": {
          "collectionName":"mediceo del principato",
          "collectionId":"1",
          "collectionAbbreviation":"MDP",
          "repositoryId":1
          },
        "section":"Carteggio universale",
        "volume":"381",
        "insert":"2"
    },
    "images":[
      {
        "fileName":"image1.jpg",
        "fileThumb":"image1-thumb.jpg",
        "fileRemoteLocation":"http://www.mia.it/images/"
      },
      {
        "fileName":"image2.jpg",
        "fileThumb":"image2-thumb.jpg",
        "fileRemoteLocation":"http://www.mia.it/images/"
      },
      {
        "fileName":"image3.jpg",
        "fileThumb":"image3-thumb.jpg",
        "fileRemoteLocation":"http://www.mia.it/images/"
      }
    ]
  }
}
